{
    "last_remote_check": 1520041120,
    "hooks": {
        "test-hook": {
            "name": "test-hook",
            "description": "This is my first hook.",
            "version": "v1.0.0",
            "enabled": true
        }
    }
}